{
  "defaultSeverity": "warning",
  "extends": ["tslint:recommended", "tslint-react", "tslint-config-prettier"],
  "jsRules": {},
  "rulesDirectory": [],
  "rules": {
    "quotemark": false,
    "no-console": [true, "warning"],
    "no-unused-variable": [true, "warning"],
    "object-literal-sort-keys": false,
    "ordered-imports": false,
    "interface-name": false,
    "jsx-boolean-value": false
  }
}
